[
    {
        "id": "0CheRoy20190219",
        "title": "Mar 23 2019-(N) at Chennai",
        "status": "SAT 23\/3 - 08:00 PM IST",
        "date": "Mar 23 2019",
        "match_no": "1st match",
        "teama": "Chennai Super Kings",
        "teamasf": "CSK",
        "teamas": "",
        "teamb": "Royal Challengers Bangalore",
        "teambsf": "RCB",
        "teambs": "",
        "mstat": "",
        "mstatin": "Match scheduled to begin at 20:00 local time (14:30 GMT)",
        "url": "http:\/\/crickexer.com\/json_cric_score\/dbScoreCard.php?q=\/series\/8048\/scorecard\/1175356\/chennai-super-kings-vs-royal-challengers-bangalore-1st-match-indian-premier-league-2019&id=0CheRoy20190219",
        "show": "1",
        "time": "08:00 PM"
    },
    {
        "id": "1KolSun20190219",
        "title": "Mar 24 2019-(D\/N) at Kolkata",
        "status": "SUN 24\/3 - 04:00 PM IST",
        "date": "Mar 24 2019",
        "match_no": "2nd match",
        "teama": "Kolkata Knight Riders",
        "teamasf": "KKR",
        "teamas": "",
        "teamb": "Sunrisers Hyderabad",
        "teambsf": "SRH",
        "teambs": "",
        "mstat": "",
        "mstatin": "Match scheduled to begin at 16:00 local time (10:30 GMT)",
        "url": "http:\/\/crickexer.com\/json_cric_score\/dbScoreCard.php?q=\/series\/8048\/scorecard\/1175357\/kolkata-knight-riders-vs-sunrisers-hyderabad-2nd-match-indian-premier-league-2019&id=1KolSun20190219",
        "show": "1",
        "time": "04:00 PM"
    },
    {
        "id": "2MumDel20190219",
        "title": "Mar 24 2019-(N) at Mumbai",
        "status": "SUN 24\/3 - 08:00 PM IST",
        "date": "Mar 24 2019",
        "match_no": "3rd match",
        "teama": "Mumbai Indians",
        "teamasf": "MI",
        "teamas": "",
        "teamb": "Delhi Capitals",
        "teambsf": "DC",
        "teambs": "",
        "mstat": "",
        "mstatin": "Match scheduled to begin at 20:00 local time (14:30 GMT)",
        "url": "http:\/\/crickexer.com\/json_cric_score\/dbScoreCard.php?q=\/series\/8048\/scorecard\/1175358\/mumbai-indians-vs-delhi-capitals-3rd-match-indian-premier-league-2019&id=2MumDel20190219",
        "show": "1",
        "time": "08:00 PM"
    },
    {
        "id": "3RajKin20190219",
        "title": "Mar 25 2019-(N) at Jaipur",
        "status": "MON 25\/3 - 08:00 PM IST",
        "date": "Mar 25 2019",
        "match_no": "4th match",
        "teama": "Rajasthan Royals",
        "teamasf": "RR",
        "teamas": "",
        "teamb": "Kings XI Punjab",
        "teambsf": "KXIP",
        "teambs": "",
        "mstat": "",
        "mstatin": "Match scheduled to begin at 20:00 local time (14:30 GMT)",
        "url": "http:\/\/crickexer.com\/json_cric_score\/dbScoreCard.php?q=\/series\/8048\/scorecard\/1175359\/rajasthan-royals-vs-kings-xi-punjab-4th-match-indian-premier-league-2019&id=3RajKin20190219",
        "show": "1",
        "time": "08:00 PM"
    },
    {
        "id": "4DelChe20190219",
        "title": "Mar 26 2019-(N) at Delhi",
        "status": "TUE 26\/3 - 08:00 PM IST",
        "date": "Mar 26 2019",
        "match_no": "5th match",
        "teama": "Delhi Capitals",
        "teamasf": "DC",
        "teamas": "",
        "teamb": "Chennai Super Kings",
        "teambsf": "CSK",
        "teambs": "",
        "mstat": "",
        "mstatin": "Match scheduled to begin at 20:00 local time (14:30 GMT)",
        "url": "http:\/\/crickexer.com\/json_cric_score\/dbScoreCard.php?q=\/series\/8048\/scorecard\/1175360\/delhi-capitals-vs-chennai-super-kings-5th-match-indian-premier-league-2019&id=4DelChe20190219",
        "show": "1",
        "time": "08:00 PM"
    },
    {
        "id": "5KolKin20190219",
        "title": "Mar 27 2019-(N) at Kolkata",
        "status": "WED 27\/3 - 08:00 PM IST",
        "date": "Mar 27 2019",
        "match_no": "6th match",
        "teama": "Kolkata Knight Riders",
        "teamasf": "KKR",
        "teamas": "",
        "teamb": "Kings XI Punjab",
        "teambsf": "KXIP",
        "teambs": "",
        "mstat": "",
        "mstatin": "Match scheduled to begin at 20:00 local time (14:30 GMT)",
        "url": "http:\/\/crickexer.com\/json_cric_score\/dbScoreCard.php?q=\/series\/8048\/scorecard\/1175361\/kolkata-knight-riders-vs-kings-xi-punjab-6th-match-indian-premier-league-2019&id=5KolKin20190219",
        "show": "1",
        "time": "08:00 PM"
    },
    {
        "id": "6RoyMum20190219",
        "title": "Mar 28 2019-(N) at Bengaluru",
        "status": "THU 28\/3 - 08:00 PM IST",
        "date": "Mar 28 2019",
        "match_no": "7th match",
        "teama": "Royal Challengers Bangalore",
        "teamasf": "RCB",
        "teamas": "",
        "teamb": "Mumbai Indians",
        "teambsf": "MI",
        "teambs": "",
        "mstat": "",
        "mstatin": "Match scheduled to begin at 20:00 local time (14:30 GMT)",
        "url": "http:\/\/crickexer.com\/json_cric_score\/dbScoreCard.php?q=\/series\/8048\/scorecard\/1175362\/royal-challengers-bangalore-vs-mumbai-indians-7th-match-indian-premier-league-2019&id=6RoyMum20190219",
        "show": "1",
        "time": "08:00 PM"
    },
    {
        "id": "7SunRaj20190219",
        "title": "Mar 29 2019-(N) at Hyderabad",
        "status": "FRI 29\/3 - 08:00 PM IST",
        "date": "Mar 29 2019",
        "match_no": "8th match",
        "teama": "Sunrisers Hyderabad",
        "teamasf": "SRH",
        "teamas": "",
        "teamb": "Rajasthan Royals",
        "teambsf": "RR",
        "teambs": "",
        "mstat": "",
        "mstatin": "Match scheduled to begin at 20:00 local time (14:30 GMT)",
        "url": "http:\/\/crickexer.com\/json_cric_score\/dbScoreCard.php?q=\/series\/8048\/scorecard\/1175363\/sunrisers-hyderabad-vs-rajasthan-royals-8th-match-indian-premier-league-2019&id=7SunRaj20190219",
        "show": "1",
        "time": "08:00 PM"
    },
    {
        "id": "8KinMum20190219",
        "title": "Mar 30 2019-(D\/N) at Chandigarh",
        "status": "SAT 30\/3 - 04:00 PM IST",
        "date": "Mar 30 2019",
        "match_no": "9th match",
        "teama": "Kings XI Punjab",
        "teamasf": "KXIP",
        "teamas": "",
        "teamb": "Mumbai Indians",
        "teambsf": "MI",
        "teambs": "",
        "mstat": "",
        "mstatin": "Match scheduled to begin at 16:00 local time (10:30 GMT)",
        "url": "http:\/\/crickexer.com\/json_cric_score\/dbScoreCard.php?q=\/series\/8048\/scorecard\/1175364\/kings-xi-punjab-vs-mumbai-indians-9th-match-indian-premier-league-2019&id=8KinMum20190219",
        "show": "1",
        "time": "04:00 PM"
    },
    {
        "id": "9DelKol20190219",
        "title": "Mar 30 2019-(N) at Delhi",
        "status": "SAT 30\/3 - 08:00 PM IST",
        "date": "Mar 30 2019",
        "match_no": "10th match",
        "teama": "Delhi Capitals",
        "teamasf": "DC",
        "teamas": "",
        "teamb": "Kolkata Knight Riders",
        "teambsf": "KKR",
        "teambs": "",
        "mstat": "",
        "mstatin": "Match scheduled to begin at 20:00 local time (14:30 GMT)",
        "url": "http:\/\/crickexer.com\/json_cric_score\/dbScoreCard.php?q=\/series\/8048\/scorecard\/1175365\/delhi-capitals-vs-kolkata-knight-riders-10th-match-indian-premier-league-2019&id=9DelKol20190219",
        "show": "1",
        "time": "08:00 PM"
    },
    {
        "id": "10SunRoy20190219",
        "title": "Mar 31 2019-(D\/N) at Hyderabad",
        "status": "SUN 31\/3 - 04:00 PM IST",
        "date": "Mar 31 2019",
        "match_no": "11th match",
        "teama": "Sunrisers Hyderabad",
        "teamasf": "SRH",
        "teamas": "",
        "teamb": "Royal Challengers Bangalore",
        "teambsf": "RCB",
        "teambs": "",
        "mstat": "",
        "mstatin": "Match scheduled to begin at 16:00 local time (10:30 GMT)",
        "url": "http:\/\/crickexer.com\/json_cric_score\/dbScoreCard.php?q=\/series\/8048\/scorecard\/1175366\/sunrisers-hyderabad-vs-royal-challengers-bangalore-11th-match-indian-premier-league-2019&id=10SunRoy20190219",
        "show": "1",
        "time": "04:00 PM"
    },
    {
        "id": "11CheRaj20190219",
        "title": "Mar 31 2019-(N) at Chennai",
        "status": "SUN 31\/3 - 08:00 PM IST",
        "date": "Mar 31 2019",
        "match_no": "12th match",
        "teama": "Chennai Super Kings",
        "teamasf": "CSK",
        "teamas": "",
        "teamb": "Rajasthan Royals",
        "teambsf": "RR",
        "teambs": "",
        "mstat": "",
        "mstatin": "Match scheduled to begin at 20:00 local time (14:30 GMT)",
        "url": "http:\/\/crickexer.com\/json_cric_score\/dbScoreCard.php?q=\/series\/8048\/scorecard\/1175367\/chennai-super-kings-vs-rajasthan-royals-12th-match-indian-premier-league-2019&id=11CheRaj20190219",
        "show": "1",
        "time": "08:00 PM"
    },
    {
        "id": "12KinDel20190219",
        "title": "Apr 1 2019-(N) at Chandigarh",
        "status": "MON 1\/4 - 08:00 PM IST",
        "date": "Apr 1 2019",
        "match_no": "13th match",
        "teama": "Kings XI Punjab",
        "teamasf": "KXIP",
        "teamas": "",
        "teamb": "Delhi Capitals",
        "teambsf": "DC",
        "teambs": "",
        "mstat": "",
        "mstatin": "Match scheduled to begin at 20:00 local time (14:30 GMT)",
        "url": "http:\/\/crickexer.com\/json_cric_score\/dbScoreCard.php?q=\/series\/8048\/scorecard\/1175368\/kings-xi-punjab-vs-delhi-capitals-13th-match-indian-premier-league-2019&id=12KinDel20190219",
        "show": "1",
        "time": "08:00 PM"
    },
    {
        "id": "13RajRoy20190219",
        "title": "Apr 2 2019-(N) at Jaipur",
        "status": "TUE 2\/4 - 08:00 PM IST",
        "date": "Apr 2 2019",
        "match_no": "14th match",
        "teama": "Rajasthan Royals",
        "teamasf": "RR",
        "teamas": "",
        "teamb": "Royal Challengers Bangalore",
        "teambsf": "RCB",
        "teambs": "",
        "mstat": "",
        "mstatin": "Match scheduled to begin at 20:00 local time (14:30 GMT)",
        "url": "http:\/\/crickexer.com\/json_cric_score\/dbScoreCard.php?q=\/series\/8048\/scorecard\/1175369\/rajasthan-royals-vs-royal-challengers-bangalore-14th-match-indian-premier-league-2019&id=13RajRoy20190219",
        "show": "1",
        "time": "08:00 PM"
    },
    {
        "id": "14MumChe20190219",
        "title": "Apr 3 2019-(N) at Mumbai",
        "status": "WED 3\/4 - 08:00 PM IST",
        "date": "Apr 3 2019",
        "match_no": "15th match",
        "teama": "Mumbai Indians",
        "teamasf": "MI",
        "teamas": "",
        "teamb": "Chennai Super Kings",
        "teambsf": "CSK",
        "teambs": "",
        "mstat": "",
        "mstatin": "Match scheduled to begin at 20:00 local time (14:30 GMT)",
        "url": "http:\/\/crickexer.com\/json_cric_score\/dbScoreCard.php?q=\/series\/8048\/scorecard\/1175370\/mumbai-indians-vs-chennai-super-kings-15th-match-indian-premier-league-2019&id=14MumChe20190219",
        "show": "1",
        "time": "08:00 PM"
    },
    {
        "id": "15DelSun20190219",
        "title": "Apr 4 2019-(N) at Delhi",
        "status": "THU 4\/4 - 08:00 PM IST",
        "date": "Apr 4 2019",
        "match_no": "16th match",
        "teama": "Delhi Capitals",
        "teamasf": "DC",
        "teamas": "",
        "teamb": "Sunrisers Hyderabad",
        "teambsf": "SRH",
        "teambs": "",
        "mstat": "",
        "mstatin": "Match scheduled to begin at 20:00 local time (14:30 GMT)",
        "url": "http:\/\/crickexer.com\/json_cric_score\/dbScoreCard.php?q=\/series\/8048\/scorecard\/1175371\/delhi-capitals-vs-sunrisers-hyderabad-16th-match-indian-premier-league-2019&id=15DelSun20190219",
        "show": "1",
        "time": "08:00 PM"
    },
    {
        "id": "16RoyKol20190219",
        "title": "Apr 5 2019-(N) at Bengaluru",
        "status": "FRI 5\/4 - 08:00 PM IST",
        "date": "Apr 5 2019",
        "match_no": "17th match",
        "teama": "Royal Challengers Bangalore",
        "teamasf": "RCB",
        "teamas": "",
        "teamb": "Kolkata Knight Riders",
        "teambsf": "KKR",
        "teambs": "",
        "mstat": "",
        "mstatin": "Match scheduled to begin at 20:00 local time (14:30 GMT)",
        "url": "http:\/\/crickexer.com\/json_cric_score\/dbScoreCard.php?q=\/series\/8048\/scorecard\/1175372\/royal-challengers-bangalore-vs-kolkata-knight-riders-17th-match-indian-premier-league-2019&id=16RoyKol20190219",
        "show": "1",
        "time": "08:00 PM"
    }
]